/home/ruissi/Bureau/workspace/gestiondesclients/src/main/java/com/gestiondesclients/manager/ClientManager.java
/home/ruissi/Bureau/workspace/gestiondesclients/src/main/java/com/gestiondesclients/config/ClientConfig.java
/home/ruissi/Bureau/workspace/gestiondesclients/src/main/java/com/gestiondesclients/GestionDesClients.java
/home/ruissi/Bureau/workspace/gestiondesclients/src/main/java/com/gestiondesclients/repository/ClientRepository.java
/home/ruissi/Bureau/workspace/gestiondesclients/src/main/java/com/gestiondesclients/controller/ClientController.java
/home/ruissi/Bureau/workspace/gestiondesclients/src/main/java/com/gestiondesclients/model/Client.java
